^C:\USERS\40201757\DESKTOP\PHYSICS-CW1\APPLICATION.CPP|C:\USERS\40201757\DESKTOP\PHYSICS-CW1\BODY.CPP|C:\USERS\40201757\DESKTOP\PHYSICS-CW1\FORCE.CPP|C:\USERS\40201757\DESKTOP\PHYSICS-CW1\MAIN.CPP|C:\USERS\40201757\DESKTOP\PHYSICS-CW1\MESH.CPP|C:\USERS\40201757\DESKTOP\PHYSICS-CW1\OBJLOADER.CPP|C:\USERS\40201757\DESKTOP\PHYSICS-CW1\PARTICLE.CPP|C:\USERS\40201757\DESKTOP\PHYSICS-CW1\RIGIDBODY.CPP|C:\USERS\40201757\DESKTOP\PHYSICS-CW1\SPHERE.CPP
C:\USERS\40201757\DESKTOP\PHYSICS-CW1\DEBUG\VC141.PDB
C:\USERS\40201757\DESKTOP\PHYSICS-CW1\DEBUG\VC141.IDB
C:\USERS\40201757\DESKTOP\PHYSICS-CW1\DEBUG\SPHERE.OBJ
C:\USERS\40201757\DESKTOP\PHYSICS-CW1\DEBUG\RIGIDBODY.OBJ
C:\USERS\40201757\DESKTOP\PHYSICS-CW1\DEBUG\PARTICLE.OBJ
C:\USERS\40201757\DESKTOP\PHYSICS-CW1\DEBUG\OBJLOADER.OBJ
C:\USERS\40201757\DESKTOP\PHYSICS-CW1\DEBUG\MESH.OBJ
C:\USERS\40201757\DESKTOP\PHYSICS-CW1\DEBUG\MAIN.OBJ
C:\USERS\40201757\DESKTOP\PHYSICS-CW1\DEBUG\FORCE.OBJ
C:\USERS\40201757\DESKTOP\PHYSICS-CW1\DEBUG\BODY.OBJ
C:\USERS\40201757\DESKTOP\PHYSICS-CW1\DEBUG\APPLICATION.OBJ
^C:\USERS\40201757\DESKTOP\PHYSICS-CW1\OBJLOADER.CPP
C:\USERS\40201757\DESKTOP\PHYSICS-CW1\DEBUG\VC141.PDB
^C:\USERS\40201757\DESKTOP\PHYSICS-CW1\APPLICATION.CPP|C:\USERS\40201757\DESKTOP\PHYSICS-CW1\MAIN.CPP|C:\USERS\40201757\DESKTOP\PHYSICS-CW1\SPHERE.CPP
C:\USERS\40201757\DESKTOP\PHYSICS-CW1\DEBUG\VC141.PDB
C:\USERS\40201757\DESKTOP\PHYSICS-CW1\DEBUG\VC141.IDB
C:\USERS\40201757\DESKTOP\PHYSICS-CW1\DEBUG\MAIN.OBJ
C:\USERS\40201757\DESKTOP\PHYSICS-CW1\DEBUG\SPHERE.OBJ
^C:\USERS\40201757\DESKTOP\PHYSICS-CW1\APPLICATION.CPP|C:\USERS\40201757\DESKTOP\PHYSICS-CW1\MAIN.CPP
C:\USERS\40201757\DESKTOP\PHYSICS-CW1\DEBUG\VC141.PDB
C:\USERS\40201757\DESKTOP\PHYSICS-CW1\DEBUG\VC141.IDB
C:\USERS\40201757\DESKTOP\PHYSICS-CW1\DEBUG\MAIN.OBJ
C:\USERS\40201757\DESKTOP\PHYSICS-CW1\DEBUG\APPLICATION.OBJ
^C:\USERS\40201757\DESKTOP\PHYSICS-CW1\APPLICATION.CPP|C:\USERS\40201757\DESKTOP\PHYSICS-CW1\BODY.CPP|C:\USERS\40201757\DESKTOP\PHYSICS-CW1\FORCE.CPP|C:\USERS\40201757\DESKTOP\PHYSICS-CW1\MAIN.CPP|C:\USERS\40201757\DESKTOP\PHYSICS-CW1\MESH.CPP|C:\USERS\40201757\DESKTOP\PHYSICS-CW1\PARTICLE.CPP|C:\USERS\40201757\DESKTOP\PHYSICS-CW1\RIGIDBODY.CPP|C:\USERS\40201757\DESKTOP\PHYSICS-CW1\SPHERE.CPP
C:\USERS\40201757\DESKTOP\PHYSICS-CW1\DEBUG\VC141.PDB
C:\USERS\40201757\DESKTOP\PHYSICS-CW1\DEBUG\VC141.IDB
C:\USERS\40201757\DESKTOP\PHYSICS-CW1\DEBUG\MAIN.OBJ
C:\USERS\40201757\DESKTOP\PHYSICS-CW1\DEBUG\SPHERE.OBJ
C:\USERS\40201757\DESKTOP\PHYSICS-CW1\DEBUG\RIGIDBODY.OBJ
C:\USERS\40201757\DESKTOP\PHYSICS-CW1\DEBUG\PARTICLE.OBJ
C:\USERS\40201757\DESKTOP\PHYSICS-CW1\DEBUG\MESH.OBJ
C:\USERS\40201757\DESKTOP\PHYSICS-CW1\DEBUG\FORCE.OBJ
C:\USERS\40201757\DESKTOP\PHYSICS-CW1\DEBUG\BODY.OBJ
C:\USERS\40201757\DESKTOP\PHYSICS-CW1\DEBUG\APPLICATION.OBJ
^C:\USERS\40201757\DESKTOP\PHYSICS-CW1\APPLICATION.CPP
C:\USERS\40201757\DESKTOP\PHYSICS-CW1\DEBUG\VC141.PDB
^C:\USERS\40201757\DESKTOP\PHYSICS-CW1\BODY.CPP
C:\USERS\40201757\DESKTOP\PHYSICS-CW1\DEBUG\VC141.PDB
^C:\USERS\40201757\DESKTOP\PHYSICS-CW1\FORCE.CPP
C:\USERS\40201757\DESKTOP\PHYSICS-CW1\DEBUG\VC141.PDB
^C:\USERS\40201757\DESKTOP\PHYSICS-CW1\MESH.CPP
C:\USERS\40201757\DESKTOP\PHYSICS-CW1\DEBUG\VC141.PDB
^C:\USERS\40201757\DESKTOP\PHYSICS-CW1\PARTICLE.CPP
C:\USERS\40201757\DESKTOP\PHYSICS-CW1\DEBUG\VC141.PDB
^C:\USERS\40201757\DESKTOP\PHYSICS-CW1\RIGIDBODY.CPP
C:\USERS\40201757\DESKTOP\PHYSICS-CW1\DEBUG\VC141.PDB
^C:\USERS\40201757\DESKTOP\PHYSICS-CW1\SPHERE.CPP
C:\USERS\40201757\DESKTOP\PHYSICS-CW1\DEBUG\VC141.PDB
^C:\USERS\40201757\DESKTOP\PHYSICS-CW1\MAIN.CPP
C:\USERS\40201757\DESKTOP\PHYSICS-CW1\DEBUG\VC141.PDB
