^C:\USERS\40201757\DESKTOP\PHYSICS-CW1\APPLICATION.CPP|C:\USERS\40201757\DESKTOP\PHYSICS-CW1\BODY.CPP|C:\USERS\40201757\DESKTOP\PHYSICS-CW1\FORCE.CPP|C:\USERS\40201757\DESKTOP\PHYSICS-CW1\MAIN.CPP|C:\USERS\40201757\DESKTOP\PHYSICS-CW1\MESH.CPP|C:\USERS\40201757\DESKTOP\PHYSICS-CW1\OBJLOADER.CPP|C:\USERS\40201757\DESKTOP\PHYSICS-CW1\PARTICLE.CPP|C:\USERS\40201757\DESKTOP\PHYSICS-CW1\RIGIDBODY.CPP|C:\USERS\40201757\DESKTOP\PHYSICS-CW1\SPHERE.CPP
C:\USERS\40201757\DESKTOP\PHYSICS-CW1\RELEASE\VC141.PDB
C:\USERS\40201757\DESKTOP\PHYSICS-CW1\RELEASE\SPHERE.OBJ
C:\USERS\40201757\DESKTOP\PHYSICS-CW1\RELEASE\RIGIDBODY.OBJ
C:\USERS\40201757\DESKTOP\PHYSICS-CW1\RELEASE\PARTICLE.OBJ
C:\USERS\40201757\DESKTOP\PHYSICS-CW1\RELEASE\OBJLOADER.OBJ
C:\USERS\40201757\DESKTOP\PHYSICS-CW1\RELEASE\MESH.OBJ
C:\USERS\40201757\DESKTOP\PHYSICS-CW1\RELEASE\MAIN.OBJ
C:\USERS\40201757\DESKTOP\PHYSICS-CW1\RELEASE\FORCE.OBJ
C:\USERS\40201757\DESKTOP\PHYSICS-CW1\RELEASE\BODY.OBJ
C:\USERS\40201757\DESKTOP\PHYSICS-CW1\RELEASE\APPLICATION.OBJ
^C:\USERS\40201757\DESKTOP\PHYSICS-CW1\BODY.CPP
C:\USERS\40201757\DESKTOP\PHYSICS-CW1\RELEASE\VC141.PDB
^C:\USERS\40201757\DESKTOP\PHYSICS-CW1\FORCE.CPP
C:\USERS\40201757\DESKTOP\PHYSICS-CW1\RELEASE\VC141.PDB
^C:\USERS\40201757\DESKTOP\PHYSICS-CW1\MESH.CPP
C:\USERS\40201757\DESKTOP\PHYSICS-CW1\RELEASE\VC141.PDB
^C:\USERS\40201757\DESKTOP\PHYSICS-CW1\OBJLOADER.CPP
C:\USERS\40201757\DESKTOP\PHYSICS-CW1\RELEASE\VC141.PDB
^C:\USERS\40201757\DESKTOP\PHYSICS-CW1\PARTICLE.CPP
C:\USERS\40201757\DESKTOP\PHYSICS-CW1\RELEASE\VC141.PDB
^C:\USERS\40201757\DESKTOP\PHYSICS-CW1\APPLICATION.CPP|C:\USERS\40201757\DESKTOP\PHYSICS-CW1\MAIN.CPP
C:\USERS\40201757\DESKTOP\PHYSICS-CW1\RELEASE\VC141.PDB
C:\USERS\40201757\DESKTOP\PHYSICS-CW1\RELEASE\MAIN.OBJ
C:\USERS\40201757\DESKTOP\PHYSICS-CW1\RELEASE\APPLICATION.OBJ
^C:\USERS\40201757\DESKTOP\PHYSICS-CW1\APPLICATION.CPP
C:\USERS\40201757\DESKTOP\PHYSICS-CW1\RELEASE\VC141.PDB
^C:\USERS\40201757\DESKTOP\PHYSICS-CW1\MAIN.CPP|C:\USERS\40201757\DESKTOP\PHYSICS-CW1\SPHERE.CPP
C:\USERS\40201757\DESKTOP\PHYSICS-CW1\RELEASE\VC141.PDB
C:\USERS\40201757\DESKTOP\PHYSICS-CW1\RELEASE\MAIN.OBJ
C:\USERS\40201757\DESKTOP\PHYSICS-CW1\RELEASE\SPHERE.OBJ
^C:\USERS\40201757\DESKTOP\PHYSICS-CW1\MAIN.CPP|C:\USERS\40201757\DESKTOP\PHYSICS-CW1\RIGIDBODY.CPP|C:\USERS\40201757\DESKTOP\PHYSICS-CW1\SPHERE.CPP
C:\USERS\40201757\DESKTOP\PHYSICS-CW1\RELEASE\VC141.PDB
C:\USERS\40201757\DESKTOP\PHYSICS-CW1\RELEASE\MAIN.OBJ
C:\USERS\40201757\DESKTOP\PHYSICS-CW1\RELEASE\SPHERE.OBJ
C:\USERS\40201757\DESKTOP\PHYSICS-CW1\RELEASE\RIGIDBODY.OBJ
^C:\USERS\40201757\DESKTOP\PHYSICS-CW1\RIGIDBODY.CPP
C:\USERS\40201757\DESKTOP\PHYSICS-CW1\RELEASE\VC141.PDB
^C:\USERS\40201757\DESKTOP\PHYSICS-CW1\SPHERE.CPP
C:\USERS\40201757\DESKTOP\PHYSICS-CW1\RELEASE\VC141.PDB
^C:\USERS\40201757\DESKTOP\PHYSICS-CW1\MAIN.CPP
C:\USERS\40201757\DESKTOP\PHYSICS-CW1\RELEASE\VC141.PDB
