^C:\USERS\40201757\DESKTOP\PHYSICS-CW1\OBJLOADER.CPP
/c /I.\GLFW\INCLUDE /I.\GLEW\INCLUDE /I.\GLM /I.\SOIL\INCLUDE /ZI /JMC /nologo /W3 /WX- /diagnostics:classic /Od /Oy- /D WIN32 /D _DEBUG /D _CONSOLE /D _UNICODE /D UNICODE /Gm- /EHsc /RTC1 /MDd /GS /fp:precise /Zc:wchar_t /Zc:forScope /Zc:inline /Fo"DEBUG\\" /Fd"DEBUG\VC141.PDB" /Gd /TP /analyze- /FC C:\USERS\40201757\DESKTOP\PHYSICS-CW1\OBJLOADER.CPP
^C:\USERS\40201757\DESKTOP\PHYSICS-CW1\APPLICATION.CPP
/c /I.\GLFW\INCLUDE /I.\GLEW\INCLUDE /I.\GLM /I.\SOIL\INCLUDE /ZI /JMC /nologo /W3 /WX- /diagnostics:classic /Od /Oy- /D WIN32 /D _DEBUG /D _CONSOLE /D _UNICODE /D UNICODE /Gm- /EHsc /RTC1 /MDd /GS /fp:precise /Zc:wchar_t /Zc:forScope /Zc:inline /Fo"DEBUG\\" /Fd"DEBUG\VC141.PDB" /Gd /TP /analyze- /FC C:\USERS\40201757\DESKTOP\PHYSICS-CW1\APPLICATION.CPP
^C:\USERS\40201757\DESKTOP\PHYSICS-CW1\BODY.CPP
/c /I.\GLFW\INCLUDE /I.\GLEW\INCLUDE /I.\GLM /I.\SOIL\INCLUDE /ZI /JMC /nologo /W3 /WX- /diagnostics:classic /Od /Oy- /D WIN32 /D _DEBUG /D _CONSOLE /D _UNICODE /D UNICODE /Gm- /EHsc /RTC1 /MDd /GS /fp:precise /Zc:wchar_t /Zc:forScope /Zc:inline /Fo"DEBUG\\" /Fd"DEBUG\VC141.PDB" /Gd /TP /analyze- /FC C:\USERS\40201757\DESKTOP\PHYSICS-CW1\BODY.CPP
^C:\USERS\40201757\DESKTOP\PHYSICS-CW1\FORCE.CPP
/c /I.\GLFW\INCLUDE /I.\GLEW\INCLUDE /I.\GLM /I.\SOIL\INCLUDE /ZI /JMC /nologo /W3 /WX- /diagnostics:classic /Od /Oy- /D WIN32 /D _DEBUG /D _CONSOLE /D _UNICODE /D UNICODE /Gm- /EHsc /RTC1 /MDd /GS /fp:precise /Zc:wchar_t /Zc:forScope /Zc:inline /Fo"DEBUG\\" /Fd"DEBUG\VC141.PDB" /Gd /TP /analyze- /FC C:\USERS\40201757\DESKTOP\PHYSICS-CW1\FORCE.CPP
^C:\USERS\40201757\DESKTOP\PHYSICS-CW1\MESH.CPP
/c /I.\GLFW\INCLUDE /I.\GLEW\INCLUDE /I.\GLM /I.\SOIL\INCLUDE /ZI /JMC /nologo /W3 /WX- /diagnostics:classic /Od /Oy- /D WIN32 /D _DEBUG /D _CONSOLE /D _UNICODE /D UNICODE /Gm- /EHsc /RTC1 /MDd /GS /fp:precise /Zc:wchar_t /Zc:forScope /Zc:inline /Fo"DEBUG\\" /Fd"DEBUG\VC141.PDB" /Gd /TP /analyze- /FC C:\USERS\40201757\DESKTOP\PHYSICS-CW1\MESH.CPP
^C:\USERS\40201757\DESKTOP\PHYSICS-CW1\PARTICLE.CPP
/c /I.\GLFW\INCLUDE /I.\GLEW\INCLUDE /I.\GLM /I.\SOIL\INCLUDE /ZI /JMC /nologo /W3 /WX- /diagnostics:classic /Od /Oy- /D WIN32 /D _DEBUG /D _CONSOLE /D _UNICODE /D UNICODE /Gm- /EHsc /RTC1 /MDd /GS /fp:precise /Zc:wchar_t /Zc:forScope /Zc:inline /Fo"DEBUG\\" /Fd"DEBUG\VC141.PDB" /Gd /TP /analyze- /FC C:\USERS\40201757\DESKTOP\PHYSICS-CW1\PARTICLE.CPP
^C:\USERS\40201757\DESKTOP\PHYSICS-CW1\RIGIDBODY.CPP
/c /I.\GLFW\INCLUDE /I.\GLEW\INCLUDE /I.\GLM /I.\SOIL\INCLUDE /ZI /JMC /nologo /W3 /WX- /diagnostics:classic /Od /Oy- /D WIN32 /D _DEBUG /D _CONSOLE /D _UNICODE /D UNICODE /Gm- /EHsc /RTC1 /MDd /GS /fp:precise /Zc:wchar_t /Zc:forScope /Zc:inline /Fo"DEBUG\\" /Fd"DEBUG\VC141.PDB" /Gd /TP /analyze- /FC C:\USERS\40201757\DESKTOP\PHYSICS-CW1\RIGIDBODY.CPP
^C:\USERS\40201757\DESKTOP\PHYSICS-CW1\SPHERE.CPP
/c /I.\GLFW\INCLUDE /I.\GLEW\INCLUDE /I.\GLM /I.\SOIL\INCLUDE /ZI /JMC /nologo /W3 /WX- /diagnostics:classic /Od /Oy- /D WIN32 /D _DEBUG /D _CONSOLE /D _UNICODE /D UNICODE /Gm- /EHsc /RTC1 /MDd /GS /fp:precise /Zc:wchar_t /Zc:forScope /Zc:inline /Fo"DEBUG\\" /Fd"DEBUG\VC141.PDB" /Gd /TP /analyze- /FC C:\USERS\40201757\DESKTOP\PHYSICS-CW1\SPHERE.CPP
^C:\USERS\40201757\DESKTOP\PHYSICS-CW1\MAIN.CPP
/c /I.\GLFW\INCLUDE /I.\GLEW\INCLUDE /I.\GLM /I.\SOIL\INCLUDE /ZI /JMC /nologo /W3 /WX- /diagnostics:classic /Od /Oy- /D WIN32 /D _DEBUG /D _CONSOLE /D _UNICODE /D UNICODE /Gm- /EHsc /RTC1 /MDd /GS /fp:precise /Zc:wchar_t /Zc:forScope /Zc:inline /Fo"DEBUG\\" /Fd"DEBUG\VC141.PDB" /Gd /TP /analyze- /FC C:\USERS\40201757\DESKTOP\PHYSICS-CW1\MAIN.CPP
