^C:\Users\40201757\Desktop\physics-cw1\simulation.vcxproj
C:\Users\40201757\Desktop\physics-cw1\Release\simulation.ipdb
C:\Users\40201757\Desktop\physics-cw1\Release\simulation.iobj
^C:\Users\40201757\Desktop\physics-cw1\simulation.vcxproj
C:\Users\40201757\Desktop\physics-cw1\Release\simulation.ipdb
C:\Users\40201757\Desktop\physics-cw1\Release\simulation.iobj
^C:\Users\40201757\Desktop\physics-cw1\simulation.vcxproj
C:\Users\40201757\Desktop\physics-cw1\Release\simulation.ipdb
C:\Users\40201757\Desktop\physics-cw1\Release\simulation.iobj
^C:\Users\40201757\Desktop\physics-cw1\simulation.vcxproj
C:\Users\40201757\Desktop\physics-cw1\Release\simulation.ipdb
C:\Users\40201757\Desktop\physics-cw1\Release\simulation.iobj
^C:\Users\40201757\Desktop\physics-cw1\simulation.vcxproj
C:\Users\40201757\Desktop\physics-cw1\Release\simulation.ipdb
C:\Users\40201757\Desktop\physics-cw1\Release\simulation.iobj
^C:\Users\40201757\Desktop\physics-cw1\simulation.vcxproj
C:\Users\40201757\Desktop\physics-cw1\Release\simulation.ipdb
C:\Users\40201757\Desktop\physics-cw1\Release\simulation.iobj
^C:\Users\40201757\Desktop\physics-cw1\simulation.vcxproj
C:\Users\40201757\Desktop\physics-cw1\Release\simulation.ipdb
C:\Users\40201757\Desktop\physics-cw1\Release\simulation.iobj
^C:\Users\40201757\Desktop\physics-cw1\simulation.vcxproj
C:\Users\40201757\Desktop\physics-cw1\Release\simulation.ipdb
C:\Users\40201757\Desktop\physics-cw1\Release\simulation.iobj
^C:\Users\40201757\Desktop\physics-cw1\simulation.vcxproj
C:\Users\40201757\Desktop\physics-cw1\Release\simulation.ipdb
C:\Users\40201757\Desktop\physics-cw1\Release\simulation.iobj
^C:\Users\40201757\Desktop\physics-cw1\simulation.vcxproj
C:\Users\40201757\Desktop\physics-cw1\Release\simulation.ipdb
C:\Users\40201757\Desktop\physics-cw1\Release\simulation.iobj
^C:\Users\40201757\Desktop\physics-cw1\simulation.vcxproj
C:\Users\40201757\Desktop\physics-cw1\Release\simulation.ipdb
C:\Users\40201757\Desktop\physics-cw1\Release\simulation.iobj
^C:\Users\40201757\Desktop\physics-cw1\simulation.vcxproj
C:\Users\40201757\Desktop\physics-cw1\Release\simulation.ipdb
C:\Users\40201757\Desktop\physics-cw1\Release\simulation.iobj
^C:\Users\40201757\Desktop\physics-cw1\simulation.vcxproj
C:\Users\40201757\Desktop\physics-cw1\Release\simulation.ipdb
C:\Users\40201757\Desktop\physics-cw1\Release\simulation.iobj
^C:\Users\40201757\Desktop\physics-cw1\simulation.vcxproj
C:\Users\40201757\Desktop\physics-cw1\Release\simulation.ipdb
C:\Users\40201757\Desktop\physics-cw1\Release\simulation.iobj
^C:\Users\40201757\Desktop\physics-cw1\simulation.vcxproj
C:\Users\40201757\Desktop\physics-cw1\Release\simulation.ipdb
C:\Users\40201757\Desktop\physics-cw1\Release\simulation.iobj
^C:\Users\40201757\Desktop\physics-cw1\simulation.vcxproj
C:\Users\40201757\Desktop\physics-cw1\Release\simulation.ipdb
C:\Users\40201757\Desktop\physics-cw1\Release\simulation.iobj
^C:\Users\40201757\Desktop\physics-cw1\simulation.vcxproj
C:\Users\40201757\Desktop\physics-cw1\Release\simulation.ipdb
C:\Users\40201757\Desktop\physics-cw1\Release\simulation.iobj
^C:\Users\40201757\Desktop\physics-cw1\simulation.vcxproj
C:\Users\40201757\Desktop\physics-cw1\Release\simulation.ipdb
C:\Users\40201757\Desktop\physics-cw1\Release\simulation.iobj
^C:\Users\40201757\Desktop\physics-cw1\simulation.vcxproj
C:\Users\40201757\Desktop\physics-cw1\Release\simulation.ipdb
C:\Users\40201757\Desktop\physics-cw1\Release\simulation.iobj
^C:\Users\40201757\Desktop\physics-cw1\simulation.vcxproj
C:\Users\40201757\Desktop\physics-cw1\Release\simulation.ipdb
C:\Users\40201757\Desktop\physics-cw1\Release\simulation.iobj
^C:\Users\40201757\Desktop\physics-cw1\simulation.vcxproj
C:\Users\40201757\Desktop\physics-cw1\Release\simulation.ipdb
C:\Users\40201757\Desktop\physics-cw1\Release\simulation.iobj
^C:\Users\40201757\Desktop\physics-cw1\simulation.vcxproj
C:\Users\40201757\Desktop\physics-cw1\Release\simulation.ipdb
C:\Users\40201757\Desktop\physics-cw1\Release\simulation.iobj
^C:\Users\40201757\Desktop\physics-cw1\simulation.vcxproj
C:\Users\40201757\Desktop\physics-cw1\Release\simulation.ipdb
C:\Users\40201757\Desktop\physics-cw1\Release\simulation.iobj
^C:\Users\40201757\Desktop\physics-cw1\simulation.vcxproj
C:\Users\40201757\Desktop\physics-cw1\Release\simulation.ipdb
C:\Users\40201757\Desktop\physics-cw1\Release\simulation.iobj
^C:\Users\40201757\Desktop\physics-cw1\simulation.vcxproj
C:\Users\40201757\Desktop\physics-cw1\Release\simulation.ipdb
C:\Users\40201757\Desktop\physics-cw1\Release\simulation.iobj
^C:\Users\40201757\Desktop\physics-cw1\simulation.vcxproj
C:\Users\40201757\Desktop\physics-cw1\Release\simulation.ipdb
C:\Users\40201757\Desktop\physics-cw1\Release\simulation.iobj
^C:\Users\40201757\Desktop\physics-cw1\simulation.vcxproj
C:\Users\40201757\Desktop\physics-cw1\Release\simulation.ipdb
C:\Users\40201757\Desktop\physics-cw1\Release\simulation.iobj
^C:\Users\40201757\Desktop\physics-cw1\simulation.vcxproj
C:\Users\40201757\Desktop\physics-cw1\Release\simulation.ipdb
C:\Users\40201757\Desktop\physics-cw1\Release\simulation.iobj
^C:\Users\40201757\Desktop\physics-cw1\simulation.vcxproj
C:\Users\40201757\Desktop\physics-cw1\Release\simulation.ipdb
C:\Users\40201757\Desktop\physics-cw1\Release\simulation.iobj
^C:\Users\40201757\Desktop\physics-cw1\simulation.vcxproj
C:\Users\40201757\Desktop\physics-cw1\Release\simulation.ipdb
C:\Users\40201757\Desktop\physics-cw1\Release\simulation.iobj
^C:\Users\40201757\Desktop\physics-cw1\simulation.vcxproj
C:\Users\40201757\Desktop\physics-cw1\Release\simulation.ipdb
C:\Users\40201757\Desktop\physics-cw1\Release\simulation.iobj
^C:\Users\40201757\Desktop\physics-cw1\simulation.vcxproj
C:\Users\40201757\Desktop\physics-cw1\Release\simulation.ipdb
C:\Users\40201757\Desktop\physics-cw1\Release\simulation.iobj
^C:\Users\40201757\Desktop\physics-cw1\simulation.vcxproj
C:\Users\40201757\Desktop\physics-cw1\Release\simulation.ipdb
C:\Users\40201757\Desktop\physics-cw1\Release\simulation.iobj
^C:\Users\40201757\Desktop\physics-cw1\simulation.vcxproj
C:\Users\40201757\Desktop\physics-cw1\Release\simulation.ipdb
C:\Users\40201757\Desktop\physics-cw1\Release\simulation.iobj
^C:\Users\40201757\Desktop\physics-cw1\simulation.vcxproj
C:\Users\40201757\Desktop\physics-cw1\Release\simulation.ipdb
C:\Users\40201757\Desktop\physics-cw1\Release\simulation.iobj
^C:\Users\40201757\Desktop\physics-cw1\simulation.vcxproj
C:\Users\40201757\Desktop\physics-cw1\Release\simulation.ipdb
C:\Users\40201757\Desktop\physics-cw1\Release\simulation.iobj
^C:\Users\40201757\Desktop\physics-cw1\simulation.vcxproj
C:\Users\40201757\Desktop\physics-cw1\Release\simulation.ipdb
C:\Users\40201757\Desktop\physics-cw1\Release\simulation.iobj
^C:\Users\40201757\Desktop\physics-cw1\simulation.vcxproj
C:\Users\40201757\Desktop\physics-cw1\Release\simulation.ipdb
C:\Users\40201757\Desktop\physics-cw1\Release\simulation.iobj
^C:\Users\40201757\Desktop\physics-cw1\simulation.vcxproj
C:\Users\40201757\Desktop\physics-cw1\Release\simulation.ipdb
C:\Users\40201757\Desktop\physics-cw1\Release\simulation.iobj
^C:\Users\40201757\Desktop\physics-cw1\simulation.vcxproj
C:\Users\40201757\Desktop\physics-cw1\Release\simulation.ipdb
C:\Users\40201757\Desktop\physics-cw1\Release\simulation.iobj
^C:\Users\40201757\Desktop\physics-cw1\simulation.vcxproj
C:\Users\40201757\Desktop\physics-cw1\Release\simulation.ipdb
C:\Users\40201757\Desktop\physics-cw1\Release\simulation.iobj
^C:\Users\40201757\Desktop\physics-cw1\simulation.vcxproj
C:\Users\40201757\Desktop\physics-cw1\Release\simulation.ipdb
C:\Users\40201757\Desktop\physics-cw1\Release\simulation.iobj
^C:\Users\40201757\Desktop\physics-cw1\simulation.vcxproj
C:\Users\40201757\Desktop\physics-cw1\Release\simulation.ipdb
C:\Users\40201757\Desktop\physics-cw1\Release\simulation.iobj
^C:\Users\40201757\Desktop\physics-cw1\simulation.vcxproj
C:\Users\40201757\Desktop\physics-cw1\Release\simulation.ipdb
C:\Users\40201757\Desktop\physics-cw1\Release\simulation.iobj
^C:\Users\40201757\Desktop\physics-cw1\simulation.vcxproj
C:\Users\40201757\Desktop\physics-cw1\Release\simulation.ipdb
C:\Users\40201757\Desktop\physics-cw1\Release\simulation.iobj
^C:\Users\40201757\Desktop\physics-cw1\simulation.vcxproj
C:\Users\40201757\Desktop\physics-cw1\Release\simulation.ipdb
C:\Users\40201757\Desktop\physics-cw1\Release\simulation.iobj
^C:\Users\40201757\Desktop\physics-cw1\simulation.vcxproj
C:\Users\40201757\Desktop\physics-cw1\Release\simulation.ipdb
C:\Users\40201757\Desktop\physics-cw1\Release\simulation.iobj
^C:\Users\40201757\Desktop\physics-cw1\simulation.vcxproj
C:\Users\40201757\Desktop\physics-cw1\Release\simulation.ipdb
C:\Users\40201757\Desktop\physics-cw1\Release\simulation.iobj
^C:\Users\40201757\Desktop\physics-cw1\simulation.vcxproj
C:\Users\40201757\Desktop\physics-cw1\Release\simulation.ipdb
C:\Users\40201757\Desktop\physics-cw1\Release\simulation.iobj
^C:\Users\40201757\Desktop\physics-cw1\simulation.vcxproj
C:\Users\40201757\Desktop\physics-cw1\Release\simulation.ipdb
C:\Users\40201757\Desktop\physics-cw1\Release\simulation.iobj
^C:\Users\40201757\Desktop\physics-cw1\simulation.vcxproj
C:\Users\40201757\Desktop\physics-cw1\Release\simulation.ipdb
C:\Users\40201757\Desktop\physics-cw1\Release\simulation.iobj
^C:\Users\40201757\Desktop\physics-cw1\simulation.vcxproj
C:\Users\40201757\Desktop\physics-cw1\Release\simulation.ipdb
C:\Users\40201757\Desktop\physics-cw1\Release\simulation.iobj
^C:\Users\40201757\Desktop\physics-cw1\simulation.vcxproj
C:\Users\40201757\Desktop\physics-cw1\Release\simulation.ipdb
C:\Users\40201757\Desktop\physics-cw1\Release\simulation.iobj
^C:\Users\40201757\Desktop\physics-cw1\simulation.vcxproj
C:\Users\40201757\Desktop\physics-cw1\Release\simulation.ipdb
C:\Users\40201757\Desktop\physics-cw1\Release\simulation.iobj
^C:\Users\40201757\Desktop\physics-cw1\simulation.vcxproj
C:\Users\40201757\Desktop\physics-cw1\Release\simulation.ipdb
C:\Users\40201757\Desktop\physics-cw1\Release\simulation.iobj
^C:\Users\40201757\Desktop\physics-cw1\simulation.vcxproj
C:\Users\40201757\Desktop\physics-cw1\Release\simulation.ipdb
C:\Users\40201757\Desktop\physics-cw1\Release\simulation.iobj
^C:\Users\40201757\Desktop\physics-cw1\simulation.vcxproj
C:\Users\40201757\Desktop\physics-cw1\Release\simulation.ipdb
C:\Users\40201757\Desktop\physics-cw1\Release\simulation.iobj
^C:\Users\40201757\Desktop\physics-cw1\simulation.vcxproj
C:\Users\40201757\Desktop\physics-cw1\Release\simulation.ipdb
C:\Users\40201757\Desktop\physics-cw1\Release\simulation.iobj
^C:\Users\40201757\Desktop\physics-cw1\simulation.vcxproj
C:\Users\40201757\Desktop\physics-cw1\Release\simulation.ipdb
C:\Users\40201757\Desktop\physics-cw1\Release\simulation.iobj
^C:\Users\40201757\Desktop\physics-cw1\simulation.vcxproj
C:\Users\40201757\Desktop\physics-cw1\Release\simulation.ipdb
C:\Users\40201757\Desktop\physics-cw1\Release\simulation.iobj
^C:\Users\40201757\Desktop\physics-cw1\simulation.vcxproj
C:\Users\40201757\Desktop\physics-cw1\Release\simulation.ipdb
C:\Users\40201757\Desktop\physics-cw1\Release\simulation.iobj
^C:\Users\40201757\Desktop\physics-cw1\simulation.vcxproj
C:\Users\40201757\Desktop\physics-cw1\Release\simulation.ipdb
C:\Users\40201757\Desktop\physics-cw1\Release\simulation.iobj
^C:\Users\40201757\Desktop\physics-cw1\simulation.vcxproj
C:\Users\40201757\Desktop\physics-cw1\Release\simulation.ipdb
C:\Users\40201757\Desktop\physics-cw1\Release\simulation.iobj
^C:\Users\40201757\Desktop\physics-cw1\simulation.vcxproj
C:\Users\40201757\Desktop\physics-cw1\Release\simulation.ipdb
C:\Users\40201757\Desktop\physics-cw1\Release\simulation.iobj
^C:\Users\40201757\Desktop\physics-cw1\simulation.vcxproj
C:\Users\40201757\Desktop\physics-cw1\Release\simulation.ipdb
C:\Users\40201757\Desktop\physics-cw1\Release\simulation.iobj
^C:\Users\40201757\Desktop\physics-cw1\simulation.vcxproj
C:\Users\40201757\Desktop\physics-cw1\Release\simulation.ipdb
C:\Users\40201757\Desktop\physics-cw1\Release\simulation.iobj
^C:\Users\40201757\Desktop\physics-cw1\simulation.vcxproj
C:\Users\40201757\Desktop\physics-cw1\Release\simulation.ipdb
C:\Users\40201757\Desktop\physics-cw1\Release\simulation.iobj
^C:\Users\40201757\Desktop\physics-cw1\simulation.vcxproj
C:\Users\40201757\Desktop\physics-cw1\Release\simulation.ipdb
C:\Users\40201757\Desktop\physics-cw1\Release\simulation.iobj
^C:\Users\40201757\Desktop\physics-cw1\simulation.vcxproj
C:\Users\40201757\Desktop\physics-cw1\Release\simulation.ipdb
C:\Users\40201757\Desktop\physics-cw1\Release\simulation.iobj
^C:\Users\40201757\Desktop\physics-cw1\simulation.vcxproj
C:\Users\40201757\Desktop\physics-cw1\Release\simulation.ipdb
C:\Users\40201757\Desktop\physics-cw1\Release\simulation.iobj
^C:\Users\40201757\Desktop\physics-cw1\simulation.vcxproj
C:\Users\40201757\Desktop\physics-cw1\Release\simulation.ipdb
C:\Users\40201757\Desktop\physics-cw1\Release\simulation.iobj
^C:\Users\40201757\Desktop\physics-cw1\simulation.vcxproj
C:\Users\40201757\Desktop\physics-cw1\Release\simulation.ipdb
C:\Users\40201757\Desktop\physics-cw1\Release\simulation.iobj
^C:\Users\40201757\Desktop\physics-cw1\simulation.vcxproj
C:\Users\40201757\Desktop\physics-cw1\Release\simulation.ipdb
C:\Users\40201757\Desktop\physics-cw1\Release\simulation.iobj
^C:\Users\40201757\Desktop\physics-cw1\simulation.vcxproj
C:\Users\40201757\Desktop\physics-cw1\Release\simulation.ipdb
C:\Users\40201757\Desktop\physics-cw1\Release\simulation.iobj
^C:\Users\40201757\Desktop\physics-cw1\simulation.vcxproj
C:\Users\40201757\Desktop\physics-cw1\Release\simulation.ipdb
C:\Users\40201757\Desktop\physics-cw1\Release\simulation.iobj
^C:\Users\40201757\Desktop\physics-cw1\simulation.vcxproj
C:\Users\40201757\Desktop\physics-cw1\Release\simulation.ipdb
C:\Users\40201757\Desktop\physics-cw1\Release\simulation.iobj
^C:\Users\40201757\Desktop\physics-cw1\simulation.vcxproj
C:\Users\40201757\Desktop\physics-cw1\Release\simulation.ipdb
C:\Users\40201757\Desktop\physics-cw1\Release\simulation.iobj
^C:\Users\40201757\Desktop\physics-cw1\simulation.vcxproj
C:\Users\40201757\Desktop\physics-cw1\Release\simulation.ipdb
C:\Users\40201757\Desktop\physics-cw1\Release\simulation.iobj
^C:\Users\40201757\Desktop\physics-cw1\simulation.vcxproj
C:\Users\40201757\Desktop\physics-cw1\Release\simulation.ipdb
C:\Users\40201757\Desktop\physics-cw1\Release\simulation.iobj
^C:\Users\40201757\Desktop\physics-cw1\simulation.vcxproj
C:\Users\40201757\Desktop\physics-cw1\Release\simulation.ipdb
C:\Users\40201757\Desktop\physics-cw1\Release\simulation.iobj
^C:\Users\40201757\Desktop\physics-cw1\simulation.vcxproj
C:\Users\40201757\Desktop\physics-cw1\Release\simulation.ipdb
C:\Users\40201757\Desktop\physics-cw1\Release\simulation.iobj
^C:\Users\40201757\Desktop\physics-cw1\simulation.vcxproj
C:\Users\40201757\Desktop\physics-cw1\Release\simulation.ipdb
C:\Users\40201757\Desktop\physics-cw1\Release\simulation.iobj
^C:\Users\40201757\Desktop\physics-cw1\simulation.vcxproj
C:\Users\40201757\Desktop\physics-cw1\Release\simulation.ipdb
C:\Users\40201757\Desktop\physics-cw1\Release\simulation.iobj
^C:\Users\40201757\Desktop\physics-cw1\simulation.vcxproj
C:\Users\40201757\Desktop\physics-cw1\Release\simulation.ipdb
C:\Users\40201757\Desktop\physics-cw1\Release\simulation.iobj
^C:\Users\40201757\Desktop\physics-cw1\simulation.vcxproj
C:\Users\40201757\Desktop\physics-cw1\Release\simulation.ipdb
C:\Users\40201757\Desktop\physics-cw1\Release\simulation.iobj
^C:\Users\40201757\Desktop\physics-cw1\simulation.vcxproj
C:\Users\40201757\Desktop\physics-cw1\Release\simulation.ipdb
C:\Users\40201757\Desktop\physics-cw1\Release\simulation.iobj
^C:\Users\40201757\Desktop\physics-cw1\simulation.vcxproj
C:\Users\40201757\Desktop\physics-cw1\Release\simulation.ipdb
C:\Users\40201757\Desktop\physics-cw1\Release\simulation.iobj
^C:\Users\40201757\Desktop\physics-cw1\simulation.vcxproj
C:\Users\40201757\Desktop\physics-cw1\Release\simulation.ipdb
C:\Users\40201757\Desktop\physics-cw1\Release\simulation.iobj
^C:\Users\40201757\Desktop\physics-cw1\simulation.vcxproj
C:\Users\40201757\Desktop\physics-cw1\Release\simulation.ipdb
C:\Users\40201757\Desktop\physics-cw1\Release\simulation.iobj
^C:\Users\40201757\Desktop\physics-cw1\simulation.vcxproj
C:\Users\40201757\Desktop\physics-cw1\Release\simulation.ipdb
C:\Users\40201757\Desktop\physics-cw1\Release\simulation.iobj
^C:\Users\40201757\Desktop\physics-cw1\simulation.vcxproj
C:\Users\40201757\Desktop\physics-cw1\Release\simulation.ipdb
C:\Users\40201757\Desktop\physics-cw1\Release\simulation.iobj
^C:\Users\40201757\Desktop\physics-cw1\simulation.vcxproj
C:\Users\40201757\Desktop\physics-cw1\Release\simulation.ipdb
C:\Users\40201757\Desktop\physics-cw1\Release\simulation.iobj
^C:\Users\40201757\Desktop\physics-cw1\simulation.vcxproj
C:\Users\40201757\Desktop\physics-cw1\Release\simulation.ipdb
C:\Users\40201757\Desktop\physics-cw1\Release\simulation.iobj
^C:\Users\40201757\Desktop\physics-cw1\simulation.vcxproj
C:\Users\40201757\Desktop\physics-cw1\Release\simulation.ipdb
C:\Users\40201757\Desktop\physics-cw1\Release\simulation.iobj
^C:\Users\40201757\Desktop\physics-cw1\simulation.vcxproj
C:\Users\40201757\Desktop\physics-cw1\Release\simulation.ipdb
C:\Users\40201757\Desktop\physics-cw1\Release\simulation.iobj
^C:\Users\40201757\Desktop\physics-cw1\simulation.vcxproj
C:\Users\40201757\Desktop\physics-cw1\Release\simulation.ipdb
C:\Users\40201757\Desktop\physics-cw1\Release\simulation.iobj
^C:\Users\40201757\Desktop\physics-cw1\simulation.vcxproj
C:\Users\40201757\Desktop\physics-cw1\Release\simulation.ipdb
C:\Users\40201757\Desktop\physics-cw1\Release\simulation.iobj
^C:\Users\40201757\Desktop\physics-cw1\simulation.vcxproj
C:\Users\40201757\Desktop\physics-cw1\Release\simulation.ipdb
C:\Users\40201757\Desktop\physics-cw1\Release\simulation.iobj
^C:\Users\40201757\Desktop\physics-cw1\simulation.vcxproj
C:\Users\40201757\Desktop\physics-cw1\Release\simulation.ipdb
C:\Users\40201757\Desktop\physics-cw1\Release\simulation.iobj
^C:\Users\40201757\Desktop\physics-cw1\simulation.vcxproj
C:\Users\40201757\Desktop\physics-cw1\Release\simulation.ipdb
C:\Users\40201757\Desktop\physics-cw1\Release\simulation.iobj
^C:\Users\40201757\Desktop\physics-cw1\simulation.vcxproj
C:\Users\40201757\Desktop\physics-cw1\Release\simulation.ipdb
C:\Users\40201757\Desktop\physics-cw1\Release\simulation.iobj
^C:\Users\40201757\Desktop\physics-cw1\simulation.vcxproj
C:\Users\40201757\Desktop\physics-cw1\Release\simulation.ipdb
C:\Users\40201757\Desktop\physics-cw1\Release\simulation.iobj
^C:\Users\40201757\Desktop\physics-cw1\simulation.vcxproj
C:\Users\40201757\Desktop\physics-cw1\Release\simulation.ipdb
C:\Users\40201757\Desktop\physics-cw1\Release\simulation.iobj
^C:\Users\40201757\Desktop\physics-cw1\simulation.vcxproj
C:\Users\40201757\Desktop\physics-cw1\Release\simulation.ipdb
C:\Users\40201757\Desktop\physics-cw1\Release\simulation.iobj
^C:\Users\40201757\Desktop\physics-cw1\simulation.vcxproj
C:\Users\40201757\Desktop\physics-cw1\Release\simulation.ipdb
C:\Users\40201757\Desktop\physics-cw1\Release\simulation.iobj
^C:\Users\40201757\Desktop\physics-cw1\simulation.vcxproj
C:\Users\40201757\Desktop\physics-cw1\Release\simulation.ipdb
C:\Users\40201757\Desktop\physics-cw1\Release\simulation.iobj
^C:\Users\40201757\Desktop\physics-cw1\simulation.vcxproj
C:\Users\40201757\Desktop\physics-cw1\Release\simulation.ipdb
C:\Users\40201757\Desktop\physics-cw1\Release\simulation.iobj
^C:\Users\40201757\Desktop\physics-cw1\simulation.vcxproj
C:\Users\40201757\Desktop\physics-cw1\Release\simulation.ipdb
C:\Users\40201757\Desktop\physics-cw1\Release\simulation.iobj
^C:\Users\40201757\Desktop\physics-cw1\simulation.vcxproj
C:\Users\40201757\Desktop\physics-cw1\Release\simulation.ipdb
C:\Users\40201757\Desktop\physics-cw1\Release\simulation.iobj
^C:\Users\40201757\Desktop\physics-cw1\simulation.vcxproj
C:\Users\40201757\Desktop\physics-cw1\Release\simulation.ipdb
C:\Users\40201757\Desktop\physics-cw1\Release\simulation.iobj
^C:\Users\40201757\Desktop\physics-cw1\simulation.vcxproj
C:\Users\40201757\Desktop\physics-cw1\Release\simulation.ipdb
C:\Users\40201757\Desktop\physics-cw1\Release\simulation.iobj
^C:\Users\40201757\Desktop\physics-cw1\simulation.vcxproj
C:\Users\40201757\Desktop\physics-cw1\Release\simulation.ipdb
C:\Users\40201757\Desktop\physics-cw1\Release\simulation.iobj
^C:\Users\40201757\Desktop\physics-cw1\simulation.vcxproj
C:\Users\40201757\Desktop\physics-cw1\Release\simulation.ipdb
C:\Users\40201757\Desktop\physics-cw1\Release\simulation.iobj
^C:\Users\40201757\Desktop\physics-cw1\simulation.vcxproj
C:\Users\40201757\Desktop\physics-cw1\Release\simulation.ipdb
C:\Users\40201757\Desktop\physics-cw1\Release\simulation.iobj
^C:\Users\40201757\Desktop\physics-cw1\simulation.vcxproj
C:\Users\40201757\Desktop\physics-cw1\Release\simulation.ipdb
C:\Users\40201757\Desktop\physics-cw1\Release\simulation.iobj
^C:\Users\40201757\Desktop\physics-cw1\simulation.vcxproj
C:\Users\40201757\Desktop\physics-cw1\Release\simulation.ipdb
C:\Users\40201757\Desktop\physics-cw1\Release\simulation.iobj
^C:\Users\40201757\Desktop\physics-cw1\simulation.vcxproj
C:\Users\40201757\Desktop\physics-cw1\Release\simulation.ipdb
C:\Users\40201757\Desktop\physics-cw1\Release\simulation.iobj
^C:\Users\40201757\Desktop\physics-cw1\simulation.vcxproj
C:\Users\40201757\Desktop\physics-cw1\Release\simulation.ipdb
C:\Users\40201757\Desktop\physics-cw1\Release\simulation.iobj
^C:\Users\40201757\Desktop\physics-cw1\simulation.vcxproj
C:\Users\40201757\Desktop\physics-cw1\Release\simulation.ipdb
C:\Users\40201757\Desktop\physics-cw1\Release\simulation.iobj
^C:\Users\40201757\Desktop\physics-cw1\simulation.vcxproj
C:\Users\40201757\Desktop\physics-cw1\Release\simulation.ipdb
C:\Users\40201757\Desktop\physics-cw1\Release\simulation.iobj
^C:\Users\40201757\Desktop\physics-cw1\simulation.vcxproj
C:\Users\40201757\Desktop\physics-cw1\Release\simulation.ipdb
C:\Users\40201757\Desktop\physics-cw1\Release\simulation.iobj
^C:\Users\40201757\Desktop\physics-cw1\simulation.vcxproj
C:\Users\40201757\Desktop\physics-cw1\Release\simulation.ipdb
C:\Users\40201757\Desktop\physics-cw1\Release\simulation.iobj
^C:\Users\40201757\Desktop\physics-cw1\simulation.vcxproj
C:\Users\40201757\Desktop\physics-cw1\Release\simulation.ipdb
C:\Users\40201757\Desktop\physics-cw1\Release\simulation.iobj
^C:\Users\40201757\Desktop\physics-cw1\simulation.vcxproj
C:\Users\40201757\Desktop\physics-cw1\Release\simulation.ipdb
C:\Users\40201757\Desktop\physics-cw1\Release\simulation.iobj
^C:\Users\40201757\Desktop\physics-cw1\simulation.vcxproj
C:\Users\40201757\Desktop\physics-cw1\Release\simulation.ipdb
C:\Users\40201757\Desktop\physics-cw1\Release\simulation.iobj
^C:\Users\40201757\Desktop\physics-cw1\simulation.vcxproj
C:\Users\40201757\Desktop\physics-cw1\Release\simulation.ipdb
C:\Users\40201757\Desktop\physics-cw1\Release\simulation.iobj
^C:\Users\40201757\Desktop\physics-cw1\simulation.vcxproj
C:\Users\40201757\Desktop\physics-cw1\Release\simulation.ipdb
C:\Users\40201757\Desktop\physics-cw1\Release\simulation.iobj
^C:\Users\40201757\Desktop\physics-cw1\simulation.vcxproj
C:\Users\40201757\Desktop\physics-cw1\Release\simulation.ipdb
C:\Users\40201757\Desktop\physics-cw1\Release\simulation.iobj
^C:\Users\40201757\Desktop\physics-cw1\simulation.vcxproj
C:\Users\40201757\Desktop\physics-cw1\Release\simulation.ipdb
C:\Users\40201757\Desktop\physics-cw1\Release\simulation.iobj
^C:\Users\40201757\Desktop\physics-cw1\simulation.vcxproj
C:\Users\40201757\Desktop\physics-cw1\Release\simulation.ipdb
C:\Users\40201757\Desktop\physics-cw1\Release\simulation.iobj
^C:\Users\40201757\Desktop\physics-cw1\simulation.vcxproj
C:\Users\40201757\Desktop\physics-cw1\Release\simulation.ipdb
C:\Users\40201757\Desktop\physics-cw1\Release\simulation.iobj
^C:\Users\40201757\Desktop\physics-cw1\simulation.vcxproj
C:\Users\40201757\Desktop\physics-cw1\Release\simulation.ipdb
C:\Users\40201757\Desktop\physics-cw1\Release\simulation.iobj
^C:\Users\40201757\Desktop\physics-cw1\simulation.vcxproj
C:\Users\40201757\Desktop\physics-cw1\Release\simulation.ipdb
C:\Users\40201757\Desktop\physics-cw1\Release\simulation.iobj
^C:\Users\40201757\Desktop\physics-cw1\simulation.vcxproj
C:\Users\40201757\Desktop\physics-cw1\Release\simulation.ipdb
C:\Users\40201757\Desktop\physics-cw1\Release\simulation.iobj
^C:\Users\40201757\Desktop\physics-cw1\simulation.vcxproj
C:\Users\40201757\Desktop\physics-cw1\Release\simulation.ipdb
C:\Users\40201757\Desktop\physics-cw1\Release\simulation.iobj
^C:\Users\40201757\Desktop\physics-cw1\simulation.vcxproj
C:\Users\40201757\Desktop\physics-cw1\Release\simulation.ipdb
C:\Users\40201757\Desktop\physics-cw1\Release\simulation.iobj
^C:\Users\40201757\Desktop\physics-cw1\simulation.vcxproj
C:\Users\40201757\Desktop\physics-cw1\Release\simulation.ipdb
C:\Users\40201757\Desktop\physics-cw1\Release\simulation.iobj
^C:\Users\40201757\Desktop\physics-cw1\simulation.vcxproj
C:\Users\40201757\Desktop\physics-cw1\Release\simulation.ipdb
C:\Users\40201757\Desktop\physics-cw1\Release\simulation.iobj
^C:\Users\40201757\Desktop\physics-cw1\simulation.vcxproj
C:\Users\40201757\Desktop\physics-cw1\Release\simulation.ipdb
C:\Users\40201757\Desktop\physics-cw1\Release\simulation.iobj
^C:\Users\40201757\Desktop\physics-cw1\simulation.vcxproj
C:\Users\40201757\Desktop\physics-cw1\Release\simulation.ipdb
C:\Users\40201757\Desktop\physics-cw1\Release\simulation.iobj
^C:\Users\40201757\Desktop\physics-cw1\simulation.vcxproj
C:\Users\40201757\Desktop\physics-cw1\Release\simulation.ipdb
C:\Users\40201757\Desktop\physics-cw1\Release\simulation.iobj
^C:\Users\40201757\Desktop\physics-cw1\simulation.vcxproj
C:\Users\40201757\Desktop\physics-cw1\Release\simulation.ipdb
C:\Users\40201757\Desktop\physics-cw1\Release\simulation.iobj
^C:\Users\40201757\Desktop\physics-cw1\simulation.vcxproj
C:\Users\40201757\Desktop\physics-cw1\Release\simulation.ipdb
C:\Users\40201757\Desktop\physics-cw1\Release\simulation.iobj
^C:\Users\40201757\Desktop\physics-cw1\simulation.vcxproj
C:\Users\40201757\Desktop\physics-cw1\Release\simulation.ipdb
C:\Users\40201757\Desktop\physics-cw1\Release\simulation.iobj
^C:\Users\40201757\Desktop\physics-cw1\simulation.vcxproj
C:\Users\40201757\Desktop\physics-cw1\Release\simulation.ipdb
C:\Users\40201757\Desktop\physics-cw1\Release\simulation.iobj
^C:\Users\40201757\Desktop\physics-cw1\simulation.vcxproj
C:\Users\40201757\Desktop\physics-cw1\Release\simulation.ipdb
C:\Users\40201757\Desktop\physics-cw1\Release\simulation.iobj
^C:\Users\40201757\Desktop\physics-cw1\simulation.vcxproj
C:\Users\40201757\Desktop\physics-cw1\Release\simulation.ipdb
C:\Users\40201757\Desktop\physics-cw1\Release\simulation.iobj
^C:\Users\40201757\Desktop\physics-cw1\simulation.vcxproj
C:\Users\40201757\Desktop\physics-cw1\Release\simulation.ipdb
C:\Users\40201757\Desktop\physics-cw1\Release\simulation.iobj
^C:\Users\40201757\Desktop\physics-cw1\simulation.vcxproj
C:\Users\40201757\Desktop\physics-cw1\Release\simulation.ipdb
C:\Users\40201757\Desktop\physics-cw1\Release\simulation.iobj
^C:\Users\40201757\Desktop\physics-cw1\simulation.vcxproj
C:\Users\40201757\Desktop\physics-cw1\Release\simulation.ipdb
C:\Users\40201757\Desktop\physics-cw1\Release\simulation.iobj
^C:\Users\40201757\Desktop\physics-cw1\simulation.vcxproj
C:\Users\40201757\Desktop\physics-cw1\Release\simulation.ipdb
C:\Users\40201757\Desktop\physics-cw1\Release\simulation.iobj
^C:\Users\40201757\Desktop\physics-cw1\simulation.vcxproj
C:\Users\40201757\Desktop\physics-cw1\Release\simulation.ipdb
C:\Users\40201757\Desktop\physics-cw1\Release\simulation.iobj
^C:\Users\40201757\Desktop\physics-cw1\simulation.vcxproj
C:\Users\40201757\Desktop\physics-cw1\Release\simulation.ipdb
C:\Users\40201757\Desktop\physics-cw1\Release\simulation.iobj
^C:\Users\40201757\Desktop\physics-cw1\simulation.vcxproj
C:\Users\40201757\Desktop\physics-cw1\Release\simulation.ipdb
C:\Users\40201757\Desktop\physics-cw1\Release\simulation.iobj
^C:\Users\40201757\Desktop\physics-cw1\simulation.vcxproj
C:\Users\40201757\Desktop\physics-cw1\Release\simulation.ipdb
C:\Users\40201757\Desktop\physics-cw1\Release\simulation.iobj
^C:\Users\40201757\Desktop\physics-cw1\simulation.vcxproj
C:\Users\40201757\Desktop\physics-cw1\Release\simulation.ipdb
C:\Users\40201757\Desktop\physics-cw1\Release\simulation.iobj
^C:\Users\40201757\Desktop\physics-cw1\simulation.vcxproj
C:\Users\40201757\Desktop\physics-cw1\Release\simulation.ipdb
C:\Users\40201757\Desktop\physics-cw1\Release\simulation.iobj
^C:\Users\40201757\Desktop\physics-cw1\simulation.vcxproj
C:\Users\40201757\Desktop\physics-cw1\Release\simulation.ipdb
C:\Users\40201757\Desktop\physics-cw1\Release\simulation.iobj
^C:\Users\40201757\Desktop\physics-cw1\simulation.vcxproj
C:\Users\40201757\Desktop\physics-cw1\Release\simulation.ipdb
C:\Users\40201757\Desktop\physics-cw1\Release\simulation.iobj
^C:\Users\40201757\Desktop\physics-cw1\simulation.vcxproj
C:\Users\40201757\Desktop\physics-cw1\Release\simulation.ipdb
C:\Users\40201757\Desktop\physics-cw1\Release\simulation.iobj
^C:\Users\40201757\Desktop\physics-cw1\simulation.vcxproj
C:\Users\40201757\Desktop\physics-cw1\Release\simulation.ipdb
C:\Users\40201757\Desktop\physics-cw1\Release\simulation.iobj
^C:\Users\40201757\Desktop\physics-cw1\simulation.vcxproj
C:\Users\40201757\Desktop\physics-cw1\Release\simulation.ipdb
C:\Users\40201757\Desktop\physics-cw1\Release\simulation.iobj
^C:\Users\40201757\Desktop\physics-cw1\simulation.vcxproj
C:\Users\40201757\Desktop\physics-cw1\Release\simulation.ipdb
C:\Users\40201757\Desktop\physics-cw1\Release\simulation.iobj
^C:\Users\40201757\Desktop\physics-cw1\simulation.vcxproj
C:\Users\40201757\Desktop\physics-cw1\Release\simulation.ipdb
C:\Users\40201757\Desktop\physics-cw1\Release\simulation.iobj
^C:\Users\40201757\Desktop\physics-cw1\simulation.vcxproj
C:\Users\40201757\Desktop\physics-cw1\Release\simulation.ipdb
C:\Users\40201757\Desktop\physics-cw1\Release\simulation.iobj
^C:\Users\40201757\Desktop\physics-cw1\simulation.vcxproj
C:\Users\40201757\Desktop\physics-cw1\Release\simulation.ipdb
C:\Users\40201757\Desktop\physics-cw1\Release\simulation.iobj
^C:\Users\40201757\Desktop\physics-cw1\simulation.vcxproj
C:\Users\40201757\Desktop\physics-cw1\Release\simulation.ipdb
C:\Users\40201757\Desktop\physics-cw1\Release\simulation.iobj
^C:\Users\40201757\Desktop\physics-cw1\simulation.vcxproj
C:\Users\40201757\Desktop\physics-cw1\Release\simulation.ipdb
C:\Users\40201757\Desktop\physics-cw1\Release\simulation.iobj
^C:\Users\40201757\Desktop\physics-cw1\simulation.vcxproj
C:\Users\40201757\Desktop\physics-cw1\Release\simulation.ipdb
C:\Users\40201757\Desktop\physics-cw1\Release\simulation.iobj
^C:\Users\40201757\Desktop\physics-cw1\simulation.vcxproj
C:\Users\40201757\Desktop\physics-cw1\Release\simulation.ipdb
C:\Users\40201757\Desktop\physics-cw1\Release\simulation.iobj
^C:\Users\40201757\Desktop\physics-cw1\simulation.vcxproj
C:\Users\40201757\Desktop\physics-cw1\Release\simulation.ipdb
C:\Users\40201757\Desktop\physics-cw1\Release\simulation.iobj
^C:\Users\40201757\Desktop\physics-cw1\simulation.vcxproj
C:\Users\40201757\Desktop\physics-cw1\Release\simulation.ipdb
C:\Users\40201757\Desktop\physics-cw1\Release\simulation.iobj
^C:\Users\40201757\Desktop\physics-cw1\simulation.vcxproj
C:\Users\40201757\Desktop\physics-cw1\Release\simulation.ipdb
C:\Users\40201757\Desktop\physics-cw1\Release\simulation.iobj
^C:\Users\40201757\Desktop\physics-cw1\simulation.vcxproj
C:\Users\40201757\Desktop\physics-cw1\Release\simulation.ipdb
C:\Users\40201757\Desktop\physics-cw1\Release\simulation.iobj
^C:\Users\40201757\Desktop\physics-cw1\simulation.vcxproj
C:\Users\40201757\Desktop\physics-cw1\Release\simulation.ipdb
C:\Users\40201757\Desktop\physics-cw1\Release\simulation.iobj
^C:\Users\40201757\Desktop\physics-cw1\simulation.vcxproj
C:\Users\40201757\Desktop\physics-cw1\Release\simulation.ipdb
C:\Users\40201757\Desktop\physics-cw1\Release\simulation.iobj
^C:\Users\40201757\Desktop\physics-cw1\simulation.vcxproj
C:\Users\40201757\Desktop\physics-cw1\Release\simulation.ipdb
C:\Users\40201757\Desktop\physics-cw1\Release\simulation.iobj
^C:\Users\40201757\Desktop\physics-cw1\simulation.vcxproj
C:\Users\40201757\Desktop\physics-cw1\Release\simulation.ipdb
C:\Users\40201757\Desktop\physics-cw1\Release\simulation.iobj
^C:\Users\40201757\Desktop\physics-cw1\simulation.vcxproj
C:\Users\40201757\Desktop\physics-cw1\Release\simulation.ipdb
C:\Users\40201757\Desktop\physics-cw1\Release\simulation.iobj
^C:\Users\40201757\Desktop\physics-cw1\simulation.vcxproj
C:\Users\40201757\Desktop\physics-cw1\Release\simulation.ipdb
C:\Users\40201757\Desktop\physics-cw1\Release\simulation.iobj
^C:\Users\40201757\Desktop\physics-cw1\simulation.vcxproj
C:\Users\40201757\Desktop\physics-cw1\Release\simulation.ipdb
C:\Users\40201757\Desktop\physics-cw1\Release\simulation.iobj
^C:\Users\40201757\Desktop\physics-cw1\simulation.vcxproj
C:\Users\40201757\Desktop\physics-cw1\Release\simulation.ipdb
C:\Users\40201757\Desktop\physics-cw1\Release\simulation.iobj
^C:\Users\40201757\Desktop\physics-cw1\simulation.vcxproj
C:\Users\40201757\Desktop\physics-cw1\Release\simulation.ipdb
C:\Users\40201757\Desktop\physics-cw1\Release\simulation.iobj
^C:\Users\40201757\Desktop\physics-cw1\simulation.vcxproj
C:\Users\40201757\Desktop\physics-cw1\Release\simulation.ipdb
C:\Users\40201757\Desktop\physics-cw1\Release\simulation.iobj
^C:\Users\40201757\Desktop\physics-cw1\simulation.vcxproj
C:\Users\40201757\Desktop\physics-cw1\Release\simulation.ipdb
C:\Users\40201757\Desktop\physics-cw1\Release\simulation.iobj
^C:\Users\40201757\Desktop\physics-cw1\simulation.vcxproj
C:\Users\40201757\Desktop\physics-cw1\Release\simulation.ipdb
C:\Users\40201757\Desktop\physics-cw1\Release\simulation.iobj
^C:\Users\40201757\Desktop\physics-cw1\simulation.vcxproj
C:\Users\40201757\Desktop\physics-cw1\Release\simulation.ipdb
C:\Users\40201757\Desktop\physics-cw1\Release\simulation.iobj
^C:\Users\40201757\Desktop\physics-cw1\simulation.vcxproj
C:\Users\40201757\Desktop\physics-cw1\Release\simulation.ipdb
C:\Users\40201757\Desktop\physics-cw1\Release\simulation.iobj
^C:\Users\40201757\Desktop\physics-cw1\simulation.vcxproj
C:\Users\40201757\Desktop\physics-cw1\Release\simulation.ipdb
C:\Users\40201757\Desktop\physics-cw1\Release\simulation.iobj
^C:\Users\40201757\Desktop\physics-cw1\simulation.vcxproj
C:\Users\40201757\Desktop\physics-cw1\Release\simulation.ipdb
C:\Users\40201757\Desktop\physics-cw1\Release\simulation.iobj
^C:\Users\40201757\Desktop\physics-cw1\simulation.vcxproj
C:\Users\40201757\Desktop\physics-cw1\Release\simulation.ipdb
C:\Users\40201757\Desktop\physics-cw1\Release\simulation.iobj
^C:\Users\40201757\Desktop\physics-cw1\simulation.vcxproj
C:\Users\40201757\Desktop\physics-cw1\Release\simulation.ipdb
C:\Users\40201757\Desktop\physics-cw1\Release\simulation.iobj
^C:\Users\40201757\Desktop\physics-cw1\simulation.vcxproj
C:\Users\40201757\Desktop\physics-cw1\Release\simulation.ipdb
C:\Users\40201757\Desktop\physics-cw1\Release\simulation.iobj
